^C:\USERS\ZBRAN\SOURCE\REPOS\FALL2020\ZLB.FIRSTDEMO\ZLB.FIRSTDEMO\DEBUG\MAIN.OBJ
C:\USERS\ZBRAN\SOURCE\REPOS\FALL2020\ZLB.FIRSTDEMO\DEBUG\ZLB.FIRSTDEMO.ILK
C:\USERS\ZBRAN\SOURCE\REPOS\FALL2020\ZLB.FIRSTDEMO\DEBUG\ZLB.FIRSTDEMO.EXE
C:\USERS\ZBRAN\SOURCE\REPOS\FALL2020\ZLB.FIRSTDEMO\DEBUG\ZLB.FIRSTDEMO.PDB
