^C:\USERS\ZBRAN\SOURCE\REPOS\ZLB.ENUMSANDSTRUCTS\ZLB.ENUMSANDSTRUCTS.UI\DEBUG\MAIN.OBJ
C:\USERS\ZBRAN\SOURCE\REPOS\ZLB.ENUMSANDSTRUCTS\DEBUG\ZLB.ENUMSANDSTRUCTS.UI.EXE
C:\USERS\ZBRAN\SOURCE\REPOS\ZLB.ENUMSANDSTRUCTS\DEBUG\ZLB.ENUMSANDSTRUCTS.UI.ILK
C:\USERS\ZBRAN\SOURCE\REPOS\ZLB.ENUMSANDSTRUCTS\DEBUG\ZLB.ENUMSANDSTRUCTS.UI.PDB
